../Core/Src/user_5110.c:105:6:LCD_Init	8	static
../Core/Src/user_5110.c:117:6:LCD_Reset	8	static
../Core/Src/user_5110.c:128:6:LCD_Set_Postion	16	static
../Core/Src/user_5110.c:136:6:LCD_Clear	16	static
../Core/Src/user_5110.c:153:6:LCD_Write_Char	24	static
../Core/Src/user_5110.c:165:6:LCD_Write_String	16	static
../Core/Src/user_5110.c:177:6:LCD_Write_Command	16	static
../Core/Src/user_5110.c:189:6:LCD_Write_Data	16	static
